{
  "hash": "c692c90f",
  "browserHash": "b6c10bba",
  "optimized": {
    "alpinejs": {
      "src": "../../node_modules/alpinejs/dist/module.esm.js",
      "file": "alpinejs.js",
      "fileHash": "c3a4d033",
      "needsInterop": false
    },
    "axios": {
      "src": "../../node_modules/axios/index.js",
      "file": "axios.js",
      "fileHash": "de11a4c0",
      "needsInterop": false
    }
  },
  "chunks": {}
}